[
  {
    "symbolicName": "appcompat_v7",
    "version": {
      "major": -1,
      "minor": -1,
      "micro": -1,
      "qualifier": ""
    },
    "jarFileFingerprint": "41037221df8e11edc9d57a1fa17fa9f2e03a15b0",
    "jarFileModificationDate": "2014-05-01T16:38:54.576+09:00",
    "location": "C:\\Users\\kazuaki\\work\\freshman\\appcompat_v7\\bin\\appcompat_v7.jar",
    "javaRuntime": false
  },
  {
    "symbolicName": "android-support-v4",
    "version": {
      "major": -1,
      "minor": -1,
      "micro": -1,
      "qualifier": ""
    },
    "jarFileFingerprint": "ded9acc6a9792b8f1afc470f0c9cd36d178914cd",
    "jarFileModificationDate": "2014-04-14T15:15:43.841+09:00",
    "location": "C:\\Users\\kazuaki\\work\\freshman\\appcompat_v7\\libs\\android-support-v4.jar",
    "javaRuntime": false
  },
  {
    "symbolicName": "android-support-v7-appcompat",
    "version": {
      "major": -1,
      "minor": -1,
      "micro": -1,
      "qualifier": ""
    },
    "jarFileFingerprint": "21297ae2bf22a0ce81c9b59992cf0693eec45d5b",
    "jarFileModificationDate": "2014-04-14T15:15:44.316+09:00",
    "location": "C:\\Users\\kazuaki\\work\\freshman\\appcompat_v7\\libs\\android-support-v7-appcompat.jar",
    "javaRuntime": false
  },
  {
    "symbolicName": "android",
    "version": {
      "major": -1,
      "minor": -1,
      "micro": -1,
      "qualifier": ""
    },
    "jarFileFingerprint": "7f972d2aa0fcb741fc84a9a10c98555f6f431a7a",
    "jarFileModificationDate": "2014-04-14T15:13:42.969+09:00",
    "location": "C:\\Users\\kazuaki\\sdk\\android-sdk_r22.6.2-windows\\android-sdk-windows\\platforms\\android-19\\android.jar",
    "javaRuntime": false
  }
]